INDEX VERSION 1.126+C:\workspace\WrongNumberDNC\.metadata\.plugins\org.eclipse.jdt.core
3974580528.index
305854171.index
4155206848.index
1046765045.index
2904203944.index
673471213.index
2286798423.index
1995173708.index
3249525058.index
4108727661.index
3146580730.index
3688769795.index
30765161.index
3938455776.index
3065916431.index
3098623178.index
1299022128.index
163172794.index
2976796881.index
3133528496.index
1894416318.index
4041092966.index
1697886153.index
1498219845.index
1115467115.index
3105681285.index
4090085005.index
