----------------------------------------------------------------
2014-12-07 23:30:04.027 GMT:
 Booting Derby version The Apache Software Foundation - Apache Derby - 10.6.1.0 - (938214): instance a816c00e-014a-2716-a841-00000daba763 
on database directory C:\workspace\WrongNumberDNC\.metadata\.plugins\com.teradata.datatools.sqldev.history\History   with class loader org.eclipse.osgi.internal.baseadaptor.DefaultClassLoader@301a89bf[com.teradata.datatools.sqldev.history:14.10.0.201310281651(id=875)]

Database Class Loader started - derby.database.classpath=''

2014-12-08 01:36:31.443 GMT:
Shutting down instance a816c00e-014a-2716-a841-00000daba763 with class loader org.eclipse.osgi.internal.baseadaptor.DefaultClassLoader@301a89bf[com.teradata.datatools.sqldev.history:14.10.0.201310281651(id=875)] 
----------------------------------------------------------------
